<?xml version="1.0" encoding="UTF-8"?>
<svg width="20px" height="20px" viewBox="0 0 20 20" version="1.1" xmlns="http://www.w3.org/2000/svg" xmlns:xlink="http://www.w3.org/1999/xlink">
    <!-- Generator: Sketch 58 (84663) - https://sketch.com -->
    <title>plus</title>
    <desc>Created with Sketch.</desc>
    <defs>
        <path d="M16,16 C16,16.55 15.55,17 15,17 C14.45,17 14,16.55 14,16 L14,12 C14,11.45 14.45,11 15,11 C15.55,11 16,11.45 16,12 L16,16 Z M10,4.328 C10,4.173 10.214,4 10.5,4 L13.5,4 C13.786,4 14,4.173 14,4.328 L14,6 L10,6 L10,4.328 Z M10,16 C10,16.55 9.55,17 9,17 C8.45,17 8,16.55 8,16 L8,12 C8,11.45 8.45,11 9,11 C9.55,11 10,11.45 10,12 L10,16 Z M21,6 L20,6 L16,6 L16,4.328 C16,3.044 14.879,2 13.5,2 L10.5,2 C9.121,2 8,3.044 8,4.328 L8,6 L4,6 L3,6 C2.45,6 2,6.45 2,7 C2,7.55 2.45,8 3,8 L4,8 L4,19 C4,20.654 5.346,22 7,22 L17,22 C18.654,22 20,20.654 20,19 L20,8 L21,8 C21.55,8 22,7.55 22,7 C22,6.45 21.55,6 21,6 L21,6 Z" id="path-1"></path>
    </defs>
    <g id="Symbols" stroke="none" stroke-width="1" fill="none" fill-rule="evenodd">
        <g id="Card/base/mine" transform="translate(-1043.000000, -34.000000)">
            <g id="Group-13" transform="translate(1033.000000, 24.000000)">
                <g id="trash-2-fill" transform="translate(8.000000, 8.000000)">
                    <mask id="mask-2" fill="white">
                        <use xlink:href="#path-1"></use>
                    </mask>
                    <use id="🎨-Icon-color" fill="#FE5266" fill-rule="evenodd" xlink:href="#path-1"></use>
                </g>
            </g>
        </g>
    </g>
</svg>