<?xml version="1.0" encoding="UTF-8"?>
<svg width="19px" height="18px" viewBox="0 0 19 18" version="1.1" xmlns="http://www.w3.org/2000/svg" xmlns:xlink="http://www.w3.org/1999/xlink">
    <!-- Generator: Sketch 58 (84663) - https://sketch.com -->
    <title>share</title>
    <desc>Created with Sketch.</desc>
    <g id="Page-1" stroke="none" stroke-width="1" fill="none" fill-rule="evenodd">
        <g id="share" fill="#1BD77A">
            <path d="M16,12.0005 C15.183,12.0005 14.443,12.3305 13.901,12.8615 L5.966,9.3355 C5.979,9.2245 6,9.1145 6,9.0005 C6,8.8865 5.979,8.7765 5.966,8.6655 L13.901,5.1395 C14.443,5.6705 15.183,6.0005 16,6.0005 C17.654,6.0005 19,4.6545 19,3.0005 C19,1.3465 17.654,0.0005 16,0.0005 C14.346,0.0005 13,1.3465 13,3.0005 C13,3.1145 13.021,3.2245 13.034,3.3355 L5.099,6.8615 C4.557,6.3305 3.817,6.0005 3,6.0005 C1.346,6.0005 0,7.3465 0,9.0005 C0,10.6545 1.346,12.0005 3,12.0005 C3.817,12.0005 4.557,11.6705 5.099,11.1395 L13.034,14.6655 C13.021,14.7765 13,14.8865 13,15.0005 C13,16.6545 14.346,18.0005 16,18.0005 C17.654,18.0005 19,16.6545 19,15.0005 C19,13.3465 17.654,12.0005 16,12.0005" id="path-1"></path>
        </g>
    </g>
</svg>